<svg width="32" height="32" viewBox="0 0 32 32" fill="none" xmlns="http://www.w3.org/2000/svg">
<path d="M16.0001 10.6666V16M16.0001 16V21.3333M16.0001 16H21.3334M16.0001 16H10.6667" stroke="#38393B" stroke-width="2" stroke-linecap="round"/>
<path d="M16.0001 29.3333C23.3639 29.3333 29.3334 23.3638 29.3334 16C29.3334 8.63616 23.3639 2.66663 16.0001 2.66663C8.63628 2.66663 2.66675 8.63616 2.66675 16C2.66675 23.3638 8.63628 29.3333 16.0001 29.3333Z" stroke="#38393B" stroke-width="2"/>
</svg>
